<svg width="52" height="61" viewBox="0 0 52 61" fill="none" xmlns="http://www.w3.org/2000/svg">
<path fill-rule="evenodd" clip-rule="evenodd" d="M45.6772 61H6.32276C5.59216 61 5 60.4103 5 59.6826V34.3174C5 33.5897 5.59216 33 6.32276 33C7.05337 33 7.64552 33.5897 7.64552 34.3174V58.3653H44.3545V34.8794C44.3545 34.152 44.9466 33.5621 45.6772 33.5621C46.4078 33.5621 47 34.152 47 34.8794V59.6826C47 60.4103 46.4078 61 45.6772 61Z" fill="black"/>
<path fill-rule="evenodd" clip-rule="evenodd" d="M50.6589 40C50.4077 40 50.1536 39.9246 49.9276 39.7673L44.6339 36.0797C44.2003 35.7778 43.6476 35.7897 43.226 36.1107L39.97 38.5894C38.605 39.628 36.7711 39.6282 35.4064 38.5894L32.2153 36.1601C31.7815 35.8298 31.1986 35.8298 30.7647 36.1601L27.5737 38.5893C26.2089 39.6283 24.3748 39.6282 23.01 38.5894L19.8189 36.1601C19.3851 35.8298 18.8022 35.8298 18.3683 36.1601L15.1773 38.5893C13.8125 39.6283 11.9786 39.6282 10.6136 38.5894L7.53736 36.2474C7.0777 35.8975 6.45236 35.9211 6.01711 36.3045L2.19275 39.6726C1.62234 40.1751 0.77789 40.0892 0.306618 39.4807C-0.164357 38.8722 -0.0838265 37.9717 0.486731 37.4692L4.31109 34.1009C5.681 32.8944 7.64781 32.8205 9.09393 33.9215L12.1701 36.2633C12.6041 36.5936 13.187 36.5933 13.6207 36.2633L16.8117 33.8342C18.1766 32.7951 20.0106 32.7951 21.3754 33.8341L24.5666 36.2633C25.0005 36.5936 25.5834 36.5933 26.0172 36.2633L29.2081 33.8342C30.573 32.7951 32.407 32.7951 33.7719 33.8341L36.963 36.2633C37.3968 36.5935 37.9797 36.5935 38.4134 36.2633L41.6693 33.7848C42.9958 32.775 44.7345 32.7367 46.0991 33.6872L51.3928 37.3746C52.0122 37.8061 52.1865 38.6915 51.7817 39.3523C51.5248 39.7719 51.0963 40 50.6589 40Z" fill="black"/>
<path fill-rule="evenodd" clip-rule="evenodd" d="M47.6706 29C47.4179 29 47.1626 28.9227 46.9364 28.7608L41.781 25.0718C41.7579 25.0553 41.7354 25.038 41.7132 25.0201C41.4448 24.8006 41.1394 24.8101 40.8752 25.046L38.0983 27.5255C36.844 28.6458 35.092 28.6457 33.8377 27.5255L31.1163 25.0953C30.8404 24.8487 30.5238 24.8489 30.2478 25.0953L27.5264 27.5255C26.2722 28.6457 24.52 28.6455 23.2657 27.5255L20.5443 25.0953C20.2684 24.8489 19.9519 24.8489 19.6759 25.0953L16.9544 27.5255C15.7001 28.6457 13.9481 28.6455 12.6938 27.5255L10.0702 25.1827C9.77713 24.921 9.43346 24.9395 9.15013 25.2321C9.1218 25.2615 9.09229 25.2894 9.06159 25.3159L5.15924 28.6854C4.58699 29.1793 3.75118 29.0805 3.29226 28.4649C2.83318 27.8492 2.92497 26.9494 3.49708 26.4555L7.35855 23.1213C8.61123 21.8731 10.4548 21.8112 11.7663 22.9825L14.3897 25.3253C14.6658 25.5718 14.9823 25.5718 15.2584 25.3253L17.9798 22.8952C19.234 21.7752 20.986 21.7752 22.2403 22.8952L24.9617 25.3253C25.2376 25.5718 25.5543 25.5718 25.8303 25.3253L28.5518 22.8952C29.8061 21.7752 31.5581 21.7752 32.8124 22.8952L35.5338 25.3253C35.8099 25.5718 36.1264 25.5718 36.4024 25.3253L39.1791 22.8458C40.3863 21.7675 42.0296 21.7169 43.2823 22.7132L48.4071 26.3801C49.0178 26.8171 49.1838 27.7043 48.7777 28.3617C48.522 28.7759 48.1003 29 47.6706 29Z" fill="black"/>
<mask id="mask0" mask-type="alpha" maskUnits="userSpaceOnUse" x="0" y="15" width="52" height="24">
<path fill-rule="evenodd" clip-rule="evenodd" d="M0 15.0511H51.9016V38.9747H0V15.0511Z" fill="white"/>
</mask>
<g mask="url(#mask0)">
<path fill-rule="evenodd" clip-rule="evenodd" d="M50.5633 38.9746C49.9641 38.9746 49.419 38.5869 49.267 38.0061L44.2681 18.8896C44.0707 18.1345 43.3642 17.6074 42.5501 17.6074H9.35177C8.5376 17.6074 7.831 18.1345 7.63369 18.8896L2.63471 38.0061C2.45568 38.691 1.72976 39.1075 1.0132 38.9361C0.29679 38.7649 -0.138821 38.071 0.0402075 37.3862L5.03919 18.2697C5.53468 16.3747 7.30802 15.0511 9.35177 15.0511H42.5501C44.5938 15.0511 46.3672 16.3747 46.8626 18.2698L51.8615 37.3862C52.0405 38.071 51.6049 38.7649 50.8885 38.9361C50.7797 38.9621 50.6707 38.9746 50.5633 38.9746Z" fill="black"/>
</g>
<path fill-rule="evenodd" clip-rule="evenodd" d="M38.6405 60C37.8896 60 37.281 59.4392 37.281 58.7472V45.2329C37.281 44.2804 36.4401 43.5056 35.4066 43.5056H30.5934C29.5597 43.5056 28.719 44.2804 28.719 45.2329V58.7472C28.719 59.4392 28.1104 60 27.3595 60C26.6086 60 26 59.4392 26 58.7472V45.2329C26 42.8988 28.0605 41 30.5934 41H35.4066C37.9393 41 40 42.8988 40 45.2329V58.7472C40 59.4392 39.3914 60 38.6405 60Z" fill="black"/>
<path fill-rule="evenodd" clip-rule="evenodd" d="M15.5 43.5104C13.4154 43.5104 11.7196 45.0759 11.7196 47C11.7196 48.9241 13.4154 50.4896 15.5 50.4896C17.5844 50.4896 19.2804 48.9241 19.2804 47C19.2804 45.0759 17.5844 43.5104 15.5 43.5104ZM15.5 53C11.9159 53 9 50.3084 9 47C9 43.6917 11.9159 41 15.5 41C19.0841 41 22 43.6917 22 47C22 50.3084 19.0841 53 15.5 53Z" fill="black"/>
<path fill-rule="evenodd" clip-rule="evenodd" d="M40.5 18C39.6715 18 39 17.463 39 16.8005V11.1995C39 10.537 39.6715 10 40.5 10C41.3285 10 42 10.537 42 11.1995V16.8005C42 17.463 41.3285 18 40.5 18Z" fill="black"/>
<path fill-rule="evenodd" clip-rule="evenodd" d="M31.5 18C30.6715 18 30 17.463 30 16.8005V11.1995C30 10.537 30.6715 10 31.5 10C32.3285 10 33 10.537 33 11.1995V16.8005C33 17.463 32.3285 18 31.5 18Z" fill="black"/>
<mask id="mask1" mask-type="alpha" maskUnits="userSpaceOnUse" x="28" y="0" width="15" height="12">
<path fill-rule="evenodd" clip-rule="evenodd" d="M28.0612 0.029541H42.8866V11.9023H28.0612V0.029541Z" fill="white"/>
</mask>
<g mask="url(#mask1)">
<path fill-rule="evenodd" clip-rule="evenodd" d="M31.8568 9.26816H39.0909L35.4738 3.76836L31.8568 9.26816ZM41.55 11.9023H29.3978C28.908 11.9023 28.4574 11.6383 28.2235 11.2142C27.9894 10.7901 28.0098 10.274 28.2761 9.86889L34.3521 0.630358C34.5985 0.255724 35.0207 0.02948 35.4738 0.02948C35.927 0.02948 36.3492 0.255724 36.5956 0.630358L42.6716 9.86889C42.9381 10.274 42.9582 10.7901 42.7243 11.2142C42.4904 11.6383 42.0398 11.9023 41.55 11.9023Z" fill="black"/>
</g>
</svg>
