<svg width="51" height="62" viewBox="0 0 51 62" fill="none" xmlns="http://www.w3.org/2000/svg">
<mask id="mask0" mask-type="alpha" maskUnits="userSpaceOnUse" x="0" y="0" width="51" height="62">
<path fill-rule="evenodd" clip-rule="evenodd" d="M51 0H0V62H51V0Z" fill="white"/>
</mask>
<g mask="url(#mask0)">
<path fill-rule="evenodd" clip-rule="evenodd" d="M27.6716 37.0974C28.0537 37.7449 28.4274 38.3722 28.8077 39.0207C28.4255 39.6691 28.0584 40.301 27.6754 40.9512C26.9112 40.9512 26.1647 40.9595 25.4004 40.9577L24.8286 39.9873L24.2588 39.0207C24.6371 38.3788 25.0174 37.7394 25.3949 37.0974H27.6716ZM20.775 40.9155C21.158 41.5648 21.5327 42.194 21.9146 42.8452L20.774 44.784H18.5075C18.1245 44.1338 17.7479 43.5036 17.3659 42.8543L18.5075 40.9155H20.775ZM10.23 33.869C9.55724 33.8699 8.90337 34.2111 8.5428 34.8238C7.80474 36.0783 7.08149 37.3165 6.34261 38.5722C5.94833 39.1591 5.89883 39.9379 6.28187 40.5871C7.00869 41.8236 7.72998 43.0396 8.45584 44.276C8.76608 44.9345 9.4434 45.3913 10.23 45.3913C11.6128 45.3913 12.9795 45.3829 14.3613 45.382C14.8041 46.135 15.244 46.8927 15.6925 47.6529C16.0738 48.3004 16.7838 48.6452 17.4965 48.6041H21.9016C22.6209 48.6041 23.2499 48.2206 23.586 47.6521L25.2791 44.7786C26.4525 44.7796 27.6174 44.7877 28.7947 44.7877C29.5813 44.7877 30.2586 44.331 30.5688 43.6724C31.2937 42.4363 32.0158 41.2199 32.7428 39.9838C33.1258 39.3343 33.0763 38.5556 32.6811 37.9687C31.943 36.713 31.2199 35.4749 30.4809 34.2202C30.1203 33.6076 29.4663 33.2664 28.7947 33.2654L26.5337 33.2618H24.2718C23.5012 33.2618 22.8341 33.7001 22.5164 34.3385C21.9754 35.2565 21.4391 36.1757 20.9002 37.0946H17.7704C17.3489 36.3774 16.9296 35.6593 16.5081 34.9421C16.1896 34.3037 15.5235 33.8653 14.7519 33.8653L10.23 33.869ZM11.3521 37.7007H13.6288C14.0073 38.3428 14.3876 38.9821 14.7649 39.6232C14.3846 40.269 14.0044 40.9155 13.6241 41.5613C12.86 41.563 12.1134 41.5547 11.3483 41.5547C10.9653 40.9045 10.5981 40.2725 10.217 39.6242C10.5971 38.9757 10.9708 38.3484 11.3521 37.7007ZM44.6359 52.5551C45.9913 52.5551 47.0919 53.6364 47.0919 54.9672V57.9169C47.0919 58.6432 19.8397 58.1534 19.8397 57.9169V54.9672C19.8397 53.6364 20.9403 52.5551 22.2959 52.5551H44.6359ZM44.6359 48.7196H39.0752C39.5525 44.883 39.1714 39.3022 39.1714 35.2832C39.1714 34.931 39.0742 34.5743 38.8687 34.256L33.1641 25.444H33.9797C35.0868 25.444 35.9846 24.6268 35.9846 23.5253V18.8532C35.9846 17.7664 35.1523 16.885 34.031 16.885H5.19252C4.08542 16.885 3.18857 17.7023 3.18857 18.8038V23.4757C3.18857 24.5626 4.02093 25.444 5.14203 25.444H6.0099L0.337112 34.2065C0.123283 34.5138 0 34.8843 0 35.2832V47.1852C0 54.2583 5.89785 60.0509 13.1065 60.0509H16.5456C16.7164 60.3243 16.9221 60.5784 17.1509 60.803C17.9031 61.5405 18.9448 62 20.0911 62H46.8406C49.1351 62 51 60.1685 51 57.9169V54.9672C51 51.5334 48.1327 48.7196 44.6359 48.7196ZM18.2992 10.6621C17.9097 9.55978 18.1282 7.82448 19.5316 5.38845C20.9964 7.89323 21.257 9.65059 20.8917 10.751C20.4302 12.1442 18.7598 11.9755 18.2992 10.6621ZM17.9012 0.855797C14.2661 5.71955 13.7606 9.46881 14.62 11.9048C16.3018 16.6704 22.9826 16.8191 24.6016 11.9352C25.4069 9.51118 24.8221 5.74242 21.101 0.780655C20.2947 -0.300588 18.6402 -0.242873 17.9012 0.855797ZM27.9939 24.6021L35.2653 35.839C35.2653 39.3865 35.6931 45.4618 35.1353 48.7196H22.2959C18.799 48.7196 15.9318 51.5334 15.9318 54.9672V56.2155H13.1065C8.04756 56.2155 3.90693 52.1516 3.90693 47.1852V35.839L11.2146 24.5525C12.0454 23.2647 11.0793 21.6084 9.5657 21.6084L7.0955 21.6074V20.7215H32.0766V21.6074H29.6103C28.0304 21.6074 27.1233 23.3518 27.9939 24.6021Z" fill="black"/>
</g>
</svg>
