<svg width="60" height="59" viewBox="0 0 60 59" fill="none" xmlns="http://www.w3.org/2000/svg">
<path fill-rule="evenodd" clip-rule="evenodd" d="M56.0501 4.86649C55.5069 4.86649 55.0667 4.43376 55.0667 3.89999C55.0667 3.36605 55.5069 2.93332 56.0501 2.93332C56.5931 2.93332 57.0333 3.36605 57.0333 3.89999C57.0333 4.43376 56.5931 4.86649 56.0501 4.86649ZM1.96674 2.93332H53.281C53.1645 3.24291 53.1033 3.56988 53.1 3.89999C53.1033 4.22994 53.1645 4.55691 53.281 4.86649H1.96674V2.93332ZM34.6133 23.2324H24.3915C26.0196 20.4578 29.6276 19.5057 32.4502 21.1059C33.3488 21.6156 34.095 22.349 34.6133 23.2324ZM40.3167 28.5199V29.0554C40.1643 29.0427 40.0098 29.0323 39.8546 29.0323H19.1454C18.9902 29.0323 18.8357 29.0427 18.6834 29.0554V28.5199C18.6856 26.6682 20.212 25.1678 22.0955 25.1656H36.9045C38.788 25.1678 40.3146 26.6682 40.3167 28.5199ZM43.2666 34.8319H36.3027C34.1402 31.1387 29.3418 29.8679 25.5848 31.9937C24.3843 32.6727 23.3881 33.652 22.6973 34.8319H15.7334V34.3196C15.7355 32.4681 17.262 30.9676 19.1454 30.9654H39.8546C41.738 30.9676 43.2645 32.4681 43.2666 34.3196V34.8319ZM46.2167 38.6984C46.2167 39.7663 45.3361 40.6317 44.25 40.6317H37.108C37.4528 39.3652 37.4528 38.0318 37.108 36.7652H44.25C45.3361 36.7652 46.2167 37.6307 46.2167 38.6984ZM43.2666 43.0774C43.2645 44.9289 41.738 46.4293 39.8546 46.4315H19.1454C17.262 46.4293 15.7355 44.9289 15.7334 43.0774V42.5649H22.6973C24.8598 46.2581 29.6582 47.529 33.4152 45.4033C34.6157 44.7241 35.6119 43.7449 36.3027 42.5649H43.2666V43.0774ZM40.3167 48.877C40.3146 50.7287 38.788 52.2292 36.9045 52.2312H22.0955C20.212 52.2292 18.6856 50.7287 18.6834 48.877V48.3415C18.8357 48.3541 18.9902 48.3649 19.1454 48.3649H39.8546C40.0098 48.3649 40.1643 48.3541 40.3167 48.3415V48.877ZM29.5001 57.0644C27.3948 57.0553 25.4519 55.9521 24.3915 54.1645H34.6133C33.5523 55.9537 31.6069 57.057 29.5001 57.0644ZM35.4001 38.6984C35.4001 41.9017 32.7584 44.4982 29.5001 44.4982C26.2416 44.4982 23.5999 41.9017 23.5999 38.6984C23.5999 35.4954 26.2416 32.8987 29.5001 32.8987C32.7571 32.9019 35.3968 35.4967 35.4001 38.6984ZM12.7833 38.6984C12.7833 37.6307 13.6639 36.7652 14.75 36.7652H21.892C21.5472 38.0318 21.5472 39.3652 21.892 40.6317H14.75C13.6639 40.6317 12.7833 39.7663 12.7833 38.6984ZM24.5832 15.6434H21.6335C20.0041 15.6434 18.6834 14.3451 18.6834 12.7436V11.7769H21.6335C23.2625 11.7769 24.5832 13.0753 24.5832 14.6768V15.6434ZM56.0501 1H0.983368C0.440205 1 0 1.43273 0 1.96666V5.83315C0 6.36693 0.440205 6.79981 0.983368 6.79981H28.5167V15.3418C27.9109 14.9815 27.2418 14.7363 26.5441 14.6188C26.5119 11.9745 24.3236 9.84676 21.6335 9.84378H17.7C17.157 9.84378 16.7166 10.2765 16.7166 10.8103V12.7436C16.72 15.4116 18.9192 17.5735 21.6335 17.5766H25.5666C26.1098 17.5766 26.55 17.1439 26.55 16.6101C27.1838 16.7735 27.7627 17.0978 28.2286 17.5506L28.5167 17.8339V18.4806C25.7065 18.8416 23.3087 20.655 22.2332 23.2324H22.0955C19.1263 23.2357 16.72 25.601 16.7166 28.5199V29.6121C14.9096 30.5115 13.7695 32.3325 13.7667 34.3235V34.9731C11.6715 35.4973 10.4052 37.5918 10.9385 39.6514C11.2922 41.0173 12.377 42.0839 13.7667 42.4317V43.0811C13.7724 45.0694 14.9123 46.8865 16.7166 47.7847V48.877C16.72 51.796 19.1263 54.1614 22.0955 54.1645H22.2332C23.841 58.1097 28.398 60.0265 32.4113 58.446C34.3975 57.6639 35.9712 56.1168 36.7668 54.1645H36.9045C39.8739 54.1614 42.2802 51.796 42.2834 48.877V47.7847C44.0904 46.8853 45.2305 45.0644 45.2333 43.0734V42.4239C47.3285 41.8997 48.5948 39.8051 48.0615 37.7454C47.7078 36.3795 46.623 35.3129 45.2333 34.9654V34.3196C45.2289 32.3299 44.0891 30.5111 42.2834 29.6121V28.5199C42.2802 25.601 39.8739 23.2357 36.9045 23.2324H36.7668C35.6916 20.6546 33.2936 18.8408 30.4833 18.4795V6.79981H56.0501C57.6792 6.79981 59 5.50148 59 3.89999C59 2.29834 57.6792 1 56.0501 1Z" fill="black"/>
<mask id="mask0" mask-type="alpha" maskUnits="userSpaceOnUse" x="0" y="0" width="60" height="59">
<path fill-rule="evenodd" clip-rule="evenodd" d="M0 0.127014H59.8702V59H0V0.127014Z" fill="white"/>
</mask>
<g mask="url(#mask0)">
<path fill-rule="evenodd" clip-rule="evenodd" d="M2.76702 3.99952H53.2222C53.1862 3.81153 53.167 3.62041 53.1651 3.42756C53.167 3.23048 53.1862 3.03716 53.2224 2.84792H2.76702V3.99952ZM54.3185 4.78409H1.96915V2.06334H54.3184L54.1195 2.59168C54.0185 2.86 53.9659 3.14119 53.963 3.42756C53.9659 3.70624 54.0185 3.98743 54.1195 4.2556L54.3185 4.78409ZM56.5178 2.84792C56.1948 2.84792 55.9321 3.1062 55.9321 3.4238C55.9321 3.74124 56.1948 3.99952 56.5178 3.99952C56.8406 3.99952 57.1032 3.74124 57.1032 3.4238C57.1032 3.1062 56.8406 2.84792 56.5178 2.84792ZM56.5178 4.78409C55.755 4.78409 55.1343 4.17385 55.1343 3.4238C55.1343 2.67359 55.755 2.06334 56.5178 2.06334C57.2805 2.06334 57.9011 2.67359 57.9011 3.4238C57.9011 4.17385 57.2805 4.78409 56.5178 4.78409ZM19.5041 11.7053V12.2812C19.5041 13.6663 20.6501 14.7932 22.0589 14.7932H24.6134V14.2173C24.6134 12.8323 23.4675 11.7053 22.0589 11.7053H19.5041ZM25.4113 15.5778H22.0589C20.2103 15.5778 18.7063 14.0989 18.7063 12.2812V10.9207H22.0589C23.9073 10.9207 25.4113 12.3996 25.4113 14.2173V15.5778ZM25.5646 22.394H34.3096C33.8698 21.8298 33.319 21.3534 32.6896 20.9964C30.2692 19.6235 27.2188 20.2677 25.5646 22.394ZM35.7453 23.1786H24.1297L24.4747 22.5903C26.2123 19.6282 30.0763 18.6086 33.0882 20.3168C34.0474 20.861 34.8469 21.6471 35.4003 22.5903L35.7453 23.1786ZM22.5215 25.1148C20.8599 25.1168 19.5059 26.4481 19.5041 28.0825V28.2033C19.5254 28.203 19.5464 28.2029 19.5678 28.2029H40.3024C40.3237 28.2029 40.3449 28.203 40.3661 28.2033V28.0825C40.3642 26.4481 39.0104 25.1168 37.3482 25.1148H22.5215ZM41.164 29.0449L40.7317 29.0092C40.594 28.9979 40.4467 28.9874 40.3024 28.9874H19.5678C19.4236 28.9874 19.2763 28.9979 19.1386 29.0092L18.7063 29.0449V28.082C18.7087 26.0155 20.4199 24.3327 22.5211 24.3302H37.3487C39.4503 24.3327 41.1614 26.0155 41.164 28.0816V29.0449ZM16.5506 34.0115H22.8972C23.6167 32.8588 24.6219 31.8969 25.816 31.2211C26.0051 31.1141 26.1972 31.0149 26.392 30.9236H19.5678C17.9062 30.9255 16.5523 32.2567 16.5506 33.8912V34.0115ZM36.9731 34.0115H43.3197V33.8907C43.3179 32.2568 41.9641 30.9255 40.302 30.9236H33.4822C34.9205 31.5925 36.1278 32.6548 36.9731 34.0115ZM44.1176 34.7961H36.5154L36.4004 34.5995C35.4064 32.9014 33.7995 31.6854 31.8755 31.1758C31.3055 31.0248 30.7273 30.9412 30.1516 30.9236H29.6947C28.4837 30.9603 27.2936 31.29 26.2141 31.901C25.0744 32.5461 24.1256 33.4791 23.4699 34.5995L23.3548 34.7961H15.7527V33.8907C15.7549 31.8243 17.4662 30.1414 19.5673 30.139H29.67C29.838 30.134 30.0059 30.134 30.1739 30.139H40.3024C42.404 30.1414 44.1152 31.8243 44.1176 33.8902V34.7961ZM15.1671 36.7324C14.3012 36.7324 13.5969 37.4251 13.5969 38.2763C13.5969 39.1277 14.3012 39.8204 15.1671 39.8204H21.8153C21.6086 38.8021 21.6086 37.7508 21.8153 36.7324H15.1671ZM22.8373 40.6049H15.1671C13.8613 40.6049 12.799 39.5604 12.799 38.2763C12.799 36.9924 13.8613 35.9479 15.1671 35.9479H22.8373L22.7031 36.4415C22.3765 37.6419 22.3765 38.9109 22.7031 40.1113L22.8373 40.6049ZM38.055 39.8204H44.7032C45.569 39.8204 46.2734 39.1277 46.2734 38.2763C46.2734 37.4251 45.569 36.7324 44.7032 36.7324H38.055C38.2617 37.7508 38.2617 38.8021 38.055 39.8204ZM44.7032 40.6049H37.0328L37.1671 40.1113C37.4938 38.9109 37.4938 37.6419 37.1671 36.4415L37.0328 35.9479H44.7032C46.0088 35.9479 47.0713 36.9924 47.0713 38.2763C47.0713 39.5604 46.0088 40.6049 44.7032 40.6049ZM29.9347 32.8599C26.8979 32.8599 24.4267 35.2898 24.4267 38.2763C24.4267 41.263 26.8979 43.6929 29.9352 43.6929C32.9722 43.6929 35.4432 41.2632 35.4434 38.2766C35.4404 35.2929 32.9694 32.8629 29.9347 32.8599ZM29.9352 44.4774C26.4579 44.4774 23.6288 41.6957 23.6288 38.2763C23.6288 34.8571 26.4579 32.0754 29.9352 32.0754C33.409 32.0788 36.2379 34.8603 36.2413 38.2758V38.2763C36.2413 41.6957 33.4125 44.4774 29.9352 44.4774ZM16.5506 42.5411V42.6621C16.5523 44.296 17.9062 45.6273 19.5683 45.6292H26.3995C24.9948 44.9769 23.7635 43.9306 22.8972 42.5411H16.5506ZM33.4778 45.6292H40.3024C41.9641 45.6273 43.3179 44.296 43.3197 42.6616V42.5411H36.9729C36.2536 43.694 35.2486 44.6559 34.0541 45.3317C33.8644 45.4392 33.6723 45.5382 33.4778 45.6292ZM40.3029 46.4138H19.5678C17.4662 46.4113 15.7549 44.7287 15.7527 42.6626V41.7565H23.3548L23.4699 41.9531C24.4639 43.6513 26.0708 44.8672 27.9948 45.3769C28.5646 45.5278 29.1424 45.6115 29.7179 45.6292H30.1765C31.387 45.5922 32.577 45.2626 33.6562 44.6516C34.7959 44.0067 35.7447 43.0735 36.4004 41.9531L36.5153 41.7565H44.1176V42.6626C44.1152 44.7287 42.404 46.4113 40.3029 46.4138ZM19.5041 48.3496V48.4708C19.5059 50.1047 20.8599 51.4361 22.522 51.4379H37.3487C39.0104 51.4361 40.3642 50.1047 40.3661 48.4703V48.3496C40.3449 48.3499 40.3237 48.3501 40.3024 48.3501H19.5678C19.5464 48.3501 19.5254 48.3499 19.5041 48.3496ZM37.3492 52.2224H22.5215C20.4199 52.2201 18.7087 50.5373 18.7063 48.4712V47.5079L19.1386 47.5436C19.2768 47.5549 19.4245 47.5655 19.5678 47.5655H40.3024C40.4457 47.5655 40.5935 47.5549 40.7317 47.5436L41.164 47.5079V48.4712C41.1614 50.5373 39.4503 52.2201 37.3492 52.2224ZM25.5699 54.1588C26.6068 55.4734 28.2217 56.2707 29.9355 56.2785C31.6511 56.2719 33.2676 55.4747 34.3052 54.1588H25.5699ZM29.9366 57.0631H29.9335C27.6946 57.0534 25.6034 55.866 24.4757 53.964L24.1261 53.3742H35.749L35.3994 53.964C34.2707 55.8679 32.1776 57.0553 29.9366 57.0631ZM22.5215 23.1786C19.7751 23.1816 17.5379 25.3814 17.535 28.0825V29.4169L17.3164 29.526C15.6319 30.3645 14.5841 32.0388 14.5814 33.8951V34.8501L14.2808 34.9254C12.3996 35.3961 11.2588 37.2843 11.7375 39.1342C12.0557 40.3638 13.0302 41.3222 14.281 41.6352L14.5814 41.7104V42.6659C14.5867 44.5181 15.6348 46.1895 17.3164 47.0268L17.535 47.1357V48.4708C17.5379 51.1714 19.7751 53.3714 22.522 53.3742H22.9294L23.0296 53.6206C24.5552 57.3649 28.894 59.1903 32.7016 57.6906C34.5795 56.9508 36.0881 55.4673 36.8405 53.6206L36.9408 53.3742H37.3487C40.0952 53.3714 42.3322 51.1714 42.3353 48.4703V47.1357L42.554 47.0268C44.2383 46.1881 45.2861 44.514 45.2888 42.6575V41.7026L45.5895 41.6274C47.4707 41.1567 48.6115 39.2687 48.1328 37.4186C47.8146 36.1889 46.8399 35.2306 45.5895 34.9177L45.2888 34.8424V33.8907C45.2847 32.0368 44.2368 30.3639 42.554 29.526L42.3353 29.4169V28.082C42.3322 25.3814 40.0952 23.1816 37.3482 23.1786H36.9432L36.8416 22.9351C35.8221 20.4897 33.5331 18.7577 30.8679 18.415L30.5207 18.3703V5.93585H56.5178C57.9263 5.93585 59.0724 4.80888 59.0724 3.4238C59.0724 2.03855 57.9263 0.911589 56.5178 0.911589H1.38351C1.06069 0.911589 0.797872 1.16987 0.797872 1.48747V5.35997C0.797872 5.67741 1.06069 5.93585 1.38351 5.93585H29.3496V15.5792L28.7441 15.2189C28.178 14.8822 27.5603 14.6558 26.9082 14.5459L26.5806 14.4908L26.5766 14.164C26.5471 11.7434 24.5202 9.77179 22.0585 9.76912H18.1206C17.7977 9.76912 17.535 10.0274 17.535 10.3448V12.2812C17.5379 14.7308 19.5675 16.7264 22.0593 16.7294H25.9969C26.3199 16.7294 26.5826 16.4711 26.5826 16.1537V15.6453L27.0827 15.7743C27.7838 15.955 28.4271 16.3155 28.9427 16.8166L29.3496 17.2168V18.3714L29.0023 18.4161C26.3374 18.7585 24.0484 20.4902 23.0285 22.9352L22.927 23.1786H22.5215ZM29.9451 59.0001C26.7618 59.0001 23.7389 57.173 22.3936 54.1572C19.2662 54.0868 16.7405 51.5618 16.7371 48.4712V47.6121C14.9148 46.6082 13.7895 44.7352 13.7836 42.667V42.3089C12.3951 41.8541 11.3287 40.736 10.9642 39.3276C10.403 37.1588 11.6568 34.9472 13.7836 34.2516V33.8946C13.7866 31.8223 14.9118 29.946 16.7371 28.9405V28.082C16.7405 24.99 19.2677 22.4645 22.396 22.3954C23.5235 19.9237 25.8409 18.1545 28.5517 17.69V17.5417L28.3802 17.3731C28.0652 17.0671 27.69 16.8256 27.2797 16.6632C27.0742 17.1615 26.5767 17.514 25.9969 17.514H22.0589C19.1277 17.5105 16.7406 15.1634 16.7371 12.2816V10.3448C16.7371 9.59479 17.3579 8.98455 18.1206 8.98455H22.0589C24.8461 8.98753 27.1591 11.1352 27.3606 13.8346C27.7719 13.9261 28.17 14.0589 28.5517 14.2316V6.72042H1.38351C0.620745 6.72042 0 6.11018 0 5.35997V1.48747C0 0.737256 0.620745 0.127014 1.38351 0.127014H56.5178C58.3663 0.127014 59.8703 1.60594 59.8703 3.4238C59.8703 5.2415 58.3663 6.72042 56.5178 6.72042H31.3186V17.6891C34.0297 18.1537 36.3471 19.9232 37.4743 22.3954C40.6028 22.4648 43.1296 24.9902 43.1331 28.0816V28.9405C44.9568 29.9454 46.0821 31.8199 46.0867 33.8899V34.2439C47.4752 34.6985 48.5416 35.8167 48.9061 37.2251C49.1906 38.3243 49.0227 39.4667 48.4334 40.4417C47.8977 41.3283 47.0722 41.98 46.0867 42.3013V42.6582C46.0837 44.7305 44.9584 46.6066 43.1331 47.6121V48.4708C43.1296 51.562 40.6037 54.0871 37.4765 54.1572C36.6129 56.0882 34.994 57.6327 32.9982 58.4189C31.9974 58.8132 30.9629 58.9999 29.9451 59.0001Z" fill="black"/>
</g>
<mask id="mask1" mask-type="alpha" maskUnits="userSpaceOnUse" x="0" y="1" width="60" height="58">
<path fill-rule="evenodd" clip-rule="evenodd" d="M0 59H60V1H0V59Z" fill="white"/>
</mask>
<g mask="url(#mask1)">
<path fill-rule="evenodd" clip-rule="evenodd" d="M12 23H14V21H12V23Z" fill="black"/>
<path fill-rule="evenodd" clip-rule="evenodd" d="M11.8651 22.1349H13.1349V20.8651H11.8651V22.1349ZM11 23H14V20H11V23Z" fill="black"/>
<path fill-rule="evenodd" clip-rule="evenodd" d="M9 29H11V27H9V29Z" fill="black"/>
<path fill-rule="evenodd" clip-rule="evenodd" d="M8.8651 29.1349H10.1349V27.8651H8.8651V29.1349ZM8 30H11V27H8V30Z" fill="black"/>
<path fill-rule="evenodd" clip-rule="evenodd" d="M3 26H5V24H3V26Z" fill="black"/>
<path fill-rule="evenodd" clip-rule="evenodd" d="M3.86505 25.1349H5.13495V23.8651H3.86505V25.1349ZM3 26H6V23H3V26Z" fill="black"/>
<path fill-rule="evenodd" clip-rule="evenodd" d="M54 53H56V51H54V53Z" fill="black"/>
<path fill-rule="evenodd" clip-rule="evenodd" d="M53.8651 53.1349H55.1349V51.8651H53.8651V53.1349ZM53 54H56V51H53V54Z" fill="black"/>
<path fill-rule="evenodd" clip-rule="evenodd" d="M49 49H51V47H49V49Z" fill="black"/>
<path fill-rule="evenodd" clip-rule="evenodd" d="M49.8651 49.1349H51.1349V47.8651H49.8651V49.1349ZM49 50H52V47H49V50Z" fill="black"/>
</g>
</svg>
