<svg width="52" height="65" viewBox="0 0 52 65" fill="none" xmlns="http://www.w3.org/2000/svg">
<mask id="mask0" mask-type="alpha" maskUnits="userSpaceOnUse" x="0" y="0" width="52" height="65">
<path fill-rule="evenodd" clip-rule="evenodd" d="M0 0H52V65H0V0Z" fill="white"/>
</mask>
<g mask="url(#mask0)">
<path fill-rule="evenodd" clip-rule="evenodd" d="M12.9301 60.7746C5.21133 54.8966 3.81529 48.1372 3.60767 45.0588H1.60722C1.44394 45.5495 0 44.661 0 43.4846V37.2406C0 36.3493 0.667679 35.625 1.56612 35.625H50.3928C51.2784 35.625 52 36.2962 52 37.1993V43.4432C52 44.3337 51.3323 45.0588 50.4339 45.0588H48.3941C48.1846 48.1372 46.7869 54.8966 39.0681 60.7746V63.3844C39.0681 64.2747 38.4004 65 37.502 65H14.4962C13.6329 65 12.9301 64.2935 12.9301 63.4247V60.7746ZM6.73472 45.0588C6.94428 47.7228 8.26848 53.5671 15.4084 58.718C15.8298 59.0231 16.0555 59.5043 16.0555 59.99L16.0633 61.8504H35.9351V59.99C35.9351 59.4176 36.2401 58.9158 36.6976 58.6399C43.7409 53.5079 45.0557 47.71 45.2669 45.0588H6.73472ZM30.5407 23.6939C31.6947 23.6939 33.2542 26.7987 33.2542 28.3042C33.2542 29.8098 32.0386 31.0318 30.5407 31.0318C29.0429 31.0318 27.8281 29.8098 27.8281 28.3042C27.8281 26.7987 29.3866 23.6939 30.5407 23.6939ZM22.6245 5.35369L22.6262 8.8006L25.6055 10.5312L28.577 8.80743L28.5754 5.35971L25.5961 3.63072L22.6245 5.35369ZM21.0592 11.529L18.0877 13.2502L18.0893 16.6987L21.0686 18.4295L24.041 16.7065L24.0384 13.258L21.0592 11.529ZM19.5025 8.8058L19.5007 3.54142L25.6055 0C27.6357 1.17901 29.6645 2.35541 31.6947 3.53361V8.8006L36.2333 11.4327L36.2307 18.5154L30.1304 22.0584L25.5919 19.4237L21.0557 22.0584C19.0255 20.8794 16.9967 19.7012 14.9665 18.5222L14.9647 11.4379L19.5025 8.8058ZM33.1131 13.258L30.1286 11.5272L27.157 13.2486L27.1588 16.6971L30.1431 18.4295L33.1131 16.7065V13.258ZM22.4278 27.1854C23.3212 27.1854 24.5292 29.5889 24.5292 30.7525C24.5292 31.9178 23.5879 32.8639 22.4278 32.8639C21.2704 32.8639 20.3291 31.9178 20.3291 30.7525C20.3291 29.5889 21.5371 27.1854 22.4278 27.1854ZM3.13223 41.9101H48.8676V38.7736H3.13223V41.9101Z" fill="#7A5F34"/>
</g>
</svg>
